Prodigy Marketing Data Science Design Challenge
…
# Join both datasets from above into a new one and delete them
data_gathered <- data_gathered_conv %>%
  left_join(data_gathered_spend, by= c("date", "channel")) %>%
  mutate(spend = replace_na(spend, 0)) %>% # will replace NA spends (for channels other than 1 and 2) by 0
  mutate(channel = as.factor(channel))

rm(data_gathered_conv, data_gathered_spend)

data_gathered

## # A tibble: 4,179 x 4
##    date       channel   conversion spend
##    <date>     <fct>          <dbl> <dbl>
##  1 2016-04-01 channel_1          2 1246.
##  2 2016-04-02 channel_1          8 1280.
##  3 2016-04-03 channel_1         10 1340.
##  4 2016-04-04 channel_1         10 1463.
##  5 2016-04-05 channel_1         10 1684.
##  6 2016-04-06 channel_1          6 1464.
##  7 2016-04-07 channel_1         12 1355.
##  8 2016-04-08 channel_1          4 1348.
##  9 2016-04-09 channel_1          6 1444.
## 10 2016-04-10 channel_1          6 1450.
## # ... with 4,169 more rows
…
# Remove unecessary variables and create dummy variables for the month and day of week
data_model <- data_model %>%
  dplyr::select(-c(date)) %>%
  dummy_cols(select_columns = c("month", "wday"), remove_first_dummy = T) %>% 
  dplyr::select(-c("month", "wday"))

# Verify both dataset have the same format
data_model

## # A tibble: 597 x 22
##    spend_ch1 spend_ch2 total_conv_paid total_conv_other  year month_May
##        <dbl>     <dbl>           <dbl>            <dbl> <dbl>     <int>
##  1     1246.         0               2              354  2016         0
##  2     1280.         0               8              312  2016         0
##  3     1340.         0              10             1298  2016         0
##  4     1463.         0              10             1502  2016         0
##  5     1684.         0              10             1682  2016         0
##  6     1464.         0               6             1730  2016         0
##  7     1355.         0              12             1512  2016         0
##  8     1348.         0               4              390  2016         0
##  9     1444.         0               6              300  2016         0
## 10     1450.         0               6             1018  2016         0
## # ... with 587 more rows, and 16 more variables: month_Jun <int>,
## #   month_Jul <int>, month_Aug <int>, month_Sep <int>, month_Oct <int>,
## #   month_Nov <int>, month_Dec <int>, month_Jan <int>, month_Feb <int>,
## #   month_Mar <int>, wday_7 <int>, wday_1 <int>, wday_2 <int>,
## #   wday_3 <int>, wday_4 <int>, wday_5 <int>

data_forecast

## # A tibble: 90 x 23
##    date        year month_Jan month_Feb month_Mar month_Apr month_May
##    <date>     <dbl>     <int>     <int>     <int>     <int>     <int>
##  1 2018-01-01  2018         1         0         0         0         0
##  2 2018-01-02  2018         1         0         0         0         0
##  3 2018-01-03  2018         1         0         0         0         0
##  4 2018-01-04  2018         1         0         0         0         0
##  5 2018-01-05  2018         1         0         0         0         0
##  6 2018-01-06  2018         1         0         0         0         0
##  7 2018-01-07  2018         1         0         0         0         0
##  8 2018-01-08  2018         1         0         0         0         0
##  9 2018-01-09  2018         1         0         0         0         0
## 10 2018-01-10  2018         1         0         0         0         0
## # ... with 80 more rows, and 16 more variables: month_Jun <int>,
## #   month_Jul <int>, month_Aug <int>, month_Sep <int>, month_Oct <int>,
## #   month_Nov <int>, month_Dec <int>, wday_2 <int>, wday_3 <int>,
## #   wday_4 <int>, wday_5 <int>, wday_6 <int>, wday_7 <int>, wday_1 <int>,
## #   spend_ch1 <dbl>, spend_ch2 <dbl>
…
